[{
  "id": 1,
  "fecha": "5/7/2019",
  "importe": 16,
  "latitud": 52.359151,
  "longitud": 5.1999127,
  "ciudad": "Terneuzen"
}, {
  "id": 2,
  "fecha": "4/2/2019",
  "importe": 63,
  "latitud": -22.7238417,
  "longitud": -51.4099625,
  "ciudad": "Porecatu"
}, {
  "id": 3,
  "fecha": "2/11/2019",
  "importe": 93,
  "latitud": -23.9949104,
  "longitud": -46.2568758,
  "ciudad": "Guarujá"
}, {
  "id": 4,
  "fecha": "2/9/2019",
  "importe": 27,
  "latitud": -14.4974525,
  "longitud": -42.2236477,
  "ciudad": "Caculé"
}, {
  "id": 5,
  "fecha": "1/26/2019",
  "importe": 23,
  "latitud": -28.2587812,
  "longitud": -52.4160039,
  "ciudad": "Passo Fundo"
}, {
  "id": 6,
  "fecha": "4/18/2019",
  "importe": 38,
  "latitud": -13.6635336,
  "longitud": 48.4537424,
  "ciudad": "Amboanjo"
}, {
  "id": 7,
  "fecha": "8/10/2019",
  "importe": 35,
  "latitud": 31.069419,
  "longitud": 35.033363,
  "ciudad": "Dimona"
}, {
  "id": 8,
  "fecha": "7/14/2019",
  "importe": 2,
  "latitud": -13.056944,
  "longitud": -74.213611,
  "ciudad": "Pacaycasa"
}, {
  "id": 9,
  "fecha": "3/7/2019",
  "importe": 65,
  "latitud": 13.0968511,
  "longitud": -59.6144819,
  "ciudad": "Bridgetown"
}, {
  "id": 10,
  "fecha": "4/12/2019",
  "importe": 20,
  "latitud": -8.6438821,
  "longitud": 117.4145232,
  "ciudad": "Semamung"
}]
