[{
  "id": 1,
  "fecha": "7/25/2019",
  "importe": 48,
  "latitud": "52.13342",
  "longitud": "-113.8687"
}, {
  "id": 2,
  "fecha": "7/2/2019",
  "importe": 58,
  "latitud": 38.777855,
  "longitud": -27.168076
}, {
  "id": 3,
  "fecha": "5/19/2019",
  "importe": 10,
  "latitud": 14.6329018,
  "longitud": -90.9259787
}, {
  "id": 4,
  "fecha": "1/11/2019",
  "importe": 8,
  "latitud": -7.3619457,
  "longitud": 107.9968408
}, {
  "id": 5,
  "fecha": "8/6/2019",
  "importe": 23,
  "latitud": 41.2606416,
  "longitud": -8.4347858
}, {
  "id": 6,
  "fecha": "4/25/2019",
  "importe": 79,
  "latitud": 7.8806888,
  "longitud": -67.4695307
}, {
  "id": 7,
  "fecha": "4/22/2019",
  "importe": 11,
  "latitud": -6.6359299,
  "longitud": 106.8370122
}, {
  "id": 8,
  "fecha": "6/5/2019",
  "importe": 27,
  "latitud": -22.8140057,
  "longitud": -45.1904004
}, {
  "id": 9,
  "fecha": "4/28/2019",
  "importe": 21,
  "latitud": 6.3741312,
  "longitud": -5.4096633
}, {
  "id": 10,
  "fecha": "5/31/2019",
  "importe": 21,
  "latitud": 12.261245,
  "longitud": 121.990929
}]
